<?xml version="1.0" standalone="no"?>
<!DOCTYPE svg PUBLIC "-//W3C//DTD SVG 1.1//EN" "http://www.w3.org/Graphics/SVG/1.1/DTD/svg11.dtd" >
<svg xmlns="http://www.w3.org/2000/svg" xmlns:xlink="http://www.w3.org/1999/xlink" version="1.1">
<metadata></metadata>
<defs>
<font id="poppinsmedium" horiz-adv-x="1388" >
<font-face units-per-em="2048" ascent="1638" descent="-410" />
<missing-glyph horiz-adv-x="614" />
<glyph unicode="&#xfb01;" horiz-adv-x="1220" d="M49 938v190h133v80q0 195 103.5 284t324.5 89v-195q-106 0 -149 -40t-43 -138v-80h649v-1128h-233v938h-416v-938h-236v938h-133zM803 1427.5q0 63.5 43 106.5t105.5 43t105.5 -43t43 -106.5t-43 -106.5t-105.5 -43t-105.5 43t-43 106.5z" />
<glyph unicode="&#xfb02;" horiz-adv-x="1220" d="M49 938v190h133v80q0 195 103.5 284t324.5 89v-195q-106 0 -149 -40t-43 -138v-80h209v-190h-209v-938h-236v938h-133zM834 0v1516h233v-1516h-233z" />
<glyph horiz-adv-x="0" />
<glyph horiz-adv-x="0" />
<glyph unicode="&#xd;" horiz-adv-x="614" />
<glyph unicode=" "  horiz-adv-x="614" />
<glyph unicode="&#x09;" horiz-adv-x="614" />
<glyph unicode="&#xa0;" horiz-adv-x="614" />
<glyph unicode="!" horiz-adv-x="847" d="M303 140.5q0 58.5 40 99.5t99.5 41t100.5 -41t41 -99.5t-41 -99.5t-99.5 -41t-99.5 41t-41 99.5zM313 1534h248l-29 -1083h-192z" />
<glyph unicode="&#x22;" horiz-adv-x="661" d="M70 1632h211l-25 -420h-160zM379 1632h211l-25 -420h-159z" />
<glyph unicode="#" horiz-adv-x="1785" d="M63 379v205h361l76 354h-316v205h359l80 373h223l-80 -373h401l80 373h223l-79 -373h272v-205h-315l-76 -354h270v-205h-313l-82 -379h-223l82 379h-402l-82 -379h-223l82 379h-318zM647 584h402l75 354h-401z" />
<glyph unicode="$" horiz-adv-x="1331" d="M123 379h250q14 -174 188 -201v451q-186 43 -262 88q-92 53 -127 114q-49 86 -49 197q0 174 121 284.5t317 127.5v166h117v-166q184 -14 295.5 -111.5t126.5 -269.5h-250q-6 66 -52 117t-120 67v-442q195 -45 260 -84q96 -59 121 -105q55 -95 55 -206q0 -158 -116.5 -279 t-319.5 -139v-166h-117v166q-197 14 -317.5 117.5t-120.5 273.5zM360 1043.5q0 -89.5 52.5 -136.5t148.5 -76v418q-92 -12 -146.5 -64t-54.5 -141.5zM678 178q94 15 147.5 73t53.5 141t-52.5 130t-148.5 76v-420z" />
<glyph unicode="%" horiz-adv-x="1478" d="M84 1132.5q0 145.5 87 229.5t224 84t224.5 -84t87.5 -229.5t-87.5 -230.5t-224.5 -85t-224 85t-87 230.5zM215 0l817 1425h230l-818 -1425h-229zM266 1131.5q0 -173.5 129 -173.5t129 173.5t-129 173.5t-129 -173.5zM774 295q0 145 87 229t223.5 84t223.5 -84t87 -229 t-87 -230t-223.5 -85t-223.5 85t-87 230zM954 295q0 -172 129 -172t129 172t-129 172t-129 -172z" />
<glyph unicode="&#x26;" horiz-adv-x="1386" d="M74 414.5q0 185.5 118.5 305.5t284.5 120l-35 16q-137 188 -137 322.5t103.5 236t279.5 101.5t280.5 -97.5t104.5 -228.5q0 -59 -18 -105h-230q16 37 16.5 92.5t-42.5 98.5t-109.5 43t-108.5 -43t-42 -116t77 -173l748 -987h-279l-186 252q-43 -117 -151.5 -192.5 t-243.5 -75.5q-180 0 -305 122.5t-125 308zM281 416.5q0 -101.5 65.5 -171t159.5 -69.5t160.5 70.5t66.5 171t-66.5 170t-161.5 69.5t-159.5 -69.5t-64.5 -171z" />
<glyph unicode="'" horiz-adv-x="352" d="M70 1632h211l-25 -420h-160z" />
<glyph unicode="(" horiz-adv-x="1101" d="M260 824q0 380 149.5 700.5t395.5 500.5h242v-22q-281 -223 -420.5 -529.5t-139.5 -649.5t139.5 -649t420.5 -531v-23h-242q-246 182 -395.5 502.5t-149.5 700.5z" />
<glyph unicode=")" horiz-adv-x="1103" d="M55 -356q283 225 422 531t139 649t-139 649.5t-422 529.5v22h242q248 -180 397.5 -500.5t149.5 -700.5t-149.5 -700.5t-397.5 -502.5h-242v23z" />
<glyph unicode="*" horiz-adv-x="1032" d="M129 1020l279 104l-279 101l94 168l240 -185l-41 299h190l-45 -299l236 183l92 -164l-281 -105l281 -104l-94 -168l-234 184l43 -297h-188l39 297l-234 -188z" />
<glyph unicode="+" horiz-adv-x="1462" d="M209 635v209h412v418h221v-418h411v-209h-411v-418h-221v418h-412z" />
<glyph unicode="," horiz-adv-x="413" d="M74 -66v226h221q80 -303 -29 -414q-59 -63 -174 -63v102q51 0 74.5 24.5t23.5 81.5v43h-116z" />
<glyph unicode="-" horiz-adv-x="1198" d="M178 643v197h842v-197h-842z" />
<glyph unicode="." horiz-adv-x="481" d="M100 140.5q0 58.5 40 99.5t99.5 41t100.5 -41t41 -100.5t-41 -99.5t-100.5 -40t-99.5 41t-40 99.5z" />
<glyph unicode="/" horiz-adv-x="1052" d="M125 -358l555 2291h231l-557 -2291h-229z" />
<glyph unicode="0" horiz-adv-x="1312" d="M123 749.5q0 165.5 25.5 293.5t84 232.5t165 161t258 56.5t258 -56.5t165 -161t84 -232.5t25.5 -293.5t-25.5 -293.5t-84 -233.5t-165 -162t-258 -56.5t-258 56.5t-165 162t-84 233.5t-25.5 293.5zM352 750q0 -225 49 -367q57 -166 254 -166t254 166q49 141 49 367 q0 223 -49 364q-57 166 -254 166q-98 0 -161.5 -42t-92.5 -124q-49 -141 -49 -364z" />
<glyph unicode="1" horiz-adv-x="716" d="M92 1241v213h426v-1454h-235v1241h-191z" />
<glyph unicode="2" horiz-adv-x="1181" d="M102 1020q6 233 140.5 357t349.5 124t341 -120.5t126 -319.5q0 -150 -80 -285q-43 -70 -82 -124t-108.5 -123.5t-110.5 -108.5t-120 -108.5t-107 -96.5h649v-195h-996v170q51 45 149.5 129t151 130.5t130 119t120.5 124.5t88 118q84 119 84 238q0 254 -241 254 q-121 0 -187.5 -77t-70.5 -206h-226z" />
<glyph unicode="3" horiz-adv-x="1216" d="M98 432h226q8 -109 83.5 -177.5t202.5 -68.5t194.5 69t67.5 177q0 143 -91 203.5t-279 60.5h-53v193h55q340 4 340 223q0 98 -63.5 156.5t-179.5 58.5t-179.5 -58.5t-75.5 -144.5h-227q12 191 146 297.5t346 106.5t334 -109.5t122 -279.5q0 -127 -67.5 -217.5 t-161.5 -120.5v-8q121 -37 188.5 -134.5t67.5 -265.5t-126 -284.5t-350.5 -116.5t-366.5 113.5t-153 326.5z" />
<glyph unicode="4" horiz-adv-x="1325" d="M94 311v176l688 988h283v-961h190v-203h-190v-311h-229v311h-742zM362 514h484v723z" />
<glyph unicode="5" horiz-adv-x="1308" d="M152 403h227q23 -96 100.5 -152t208.5 -56t204 88t73 234.5t-74 225t-217 78.5q-100 0 -169 -50t-99 -136h-222v862h901v-205h-686v-407q43 57 128 96t199 39t211 -45t148 -121q102 -147 103 -332q0 -233 -133 -377.5t-369.5 -144.5t-372 110.5t-161.5 292.5z" />
<glyph unicode="6" horiz-adv-x="1314" d="M152 780q0 750 528 750q205 0 322.5 -110.5t138.5 -272.5h-215q-45 188 -248 188q-162 0 -242 -124t-84 -410q53 90 155.5 139t221.5 49q205 0 332 -131t127 -355t-129 -363.5t-361 -139.5q-317 0 -436 213q-61 106 -85.5 242.5t-24.5 324.5zM379 501.5q0 -141.5 81 -224 t218 -82.5t212 79.5t75 216t-73 219.5t-206 83t-220 -75t-87 -216.5z" />
<glyph unicode="7" horiz-adv-x="1146" d="M82 1292v195h987v-174l-569 -1313h-256l596 1292h-758z" />
<glyph unicode="8" horiz-adv-x="1306" d="M125 422q0 139 67.5 237.5t182.5 141.5q-213 107 -213 336q0 172 128 287.5t363.5 115.5t363.5 -115.5t128 -287.5q0 -115 -58.5 -202t-154.5 -134q117 -45 184.5 -143.5t67.5 -235.5q0 -209 -147.5 -334t-382 -125t-382 125t-147.5 334zM348 435q0 -128 82 -202.5 t222.5 -74.5t221 75.5t80.5 200.5t-81.5 194.5t-218 69.5t-221.5 -67.5t-85 -195.5zM387 1113.5q0 -109.5 75 -174.5t191.5 -65t192.5 66t76 174.5t-72 170t-196 61.5t-195.5 -61.5t-71.5 -171z" />
<glyph unicode="9" horiz-adv-x="1300" d="M158 1033.5q0 226.5 132 360.5t363 134q279 0 396.5 -185.5t117.5 -576.5t-108.5 -577.5t-388.5 -186.5q-219 0 -338 114.5t-133 289.5h215q41 -209 270 -209q145 0 213 114.5t68 390.5q-49 -70 -138.5 -107.5t-193.5 -37.5q-207 0 -341 125t-134 351.5zM381 1043 q0 -128 72.5 -208.5t208 -80.5t206 76.5t70.5 211t-75 213t-204 78.5t-203.5 -81t-74.5 -209z" />
<glyph unicode=":" horiz-adv-x="628" d="M164 140.5q0 58.5 40 99.5t99 41t100 -41t41 -100.5t-41 -99.5t-99 -40t-99 41t-41 99.5zM164 997.5q0 59.5 41 100.5t99 41t99 -41t41 -100.5t-41 -99.5t-99 -40t-99 40t-41 99.5z" />
<glyph unicode=";" horiz-adv-x="622" d="M195 1000.5q0 58.5 39.5 99.5t99 41t100.5 -41t41 -100.5t-41 -99.5t-100.5 -40t-99 41t-39.5 99.5zM209 -66v226h221q80 -303 -29 -414q-59 -63 -174 -63v102q51 0 75 24.5t24 81.5v43h-117z" />
<glyph unicode="&#x3c;" horiz-adv-x="1253" d="M201 739l471 465h295l-473 -465l473 -465h-295z" />
<glyph unicode="=" horiz-adv-x="1585" d="M248 403v207h1089v-207h-1089zM248 868v207h1089v-207h-1089z" />
<glyph unicode="&#x3e;" horiz-adv-x="1208" d="M229 274l473 465l-473 465h295l471 -465l-471 -465h-295z" />
<glyph unicode="?" horiz-adv-x="1296" d="M197 1110q-2 188 122.5 305t332.5 117t334 -114.5t126 -324.5t-121 -306.5t-358 -98.5v-250h-221v410h98q193 -2 286 50t93 206q0 109 -62.5 170t-173 61t-174 -59t-63.5 -166h-219zM387 129q0 59 41 100t99.5 41t99.5 -41t41 -100t-41 -100t-99.5 -41t-99.5 41t-41 100z " />
<glyph unicode="@" horiz-adv-x="2441" d="M100 436q0 338 166 610.5t457 425t647 152.5q436 0 703.5 -241.5t267.5 -647.5q0 -315 -178 -534t-402 -219q-129 0 -193.5 69.5t-68.5 181.5q-152 -252 -414 -251q-211 0 -343 167.5t-95 421.5t221.5 414t420 160t365.5 -154.5t95 -392.5l-45 -305q-16 -111 76 -111 q111 0 215 159t104 396q0 315 -202.5 507t-557.5 192q-432 0 -715.5 -289t-283.5 -711q0 -360 225.5 -562t618.5 -210l-47 -188q-465 8 -751 264t-286 696zM880.5 563q-24.5 -166 54.5 -273.5t208 -107.5t238.5 108.5t134 273.5t-54.5 272.5t-208 107.5t-238.5 -107.5 t-134 -273.5z" />
<glyph unicode="A" horiz-adv-x="1427" d="M70 0l510 1425h270l510 -1425h-246l-102 291h-596l-103 -291h-243zM479 473h469l-233 670z" />
<glyph unicode="B" horiz-adv-x="1290" d="M154 0v1423h542q219 0 340 -106.5t121 -269.5q0 -240 -276 -316q139 -23 224 -124t85 -232q0 -164 -127 -269.5t-340 -105.5h-569zM387 182h315q119 0 186.5 59.5t67.5 165t-71.5 168t-190.5 62.5h-307v-455zM387 819h289q115 0 179.5 55.5t64.5 154.5t-64.5 155.5 t-179.5 56.5h-289v-422z" />
<glyph unicode="C" horiz-adv-x="1583" d="M76 713.5q0 316.5 211 522.5t516 206q227 0 404 -111.5t257 -316.5h-280q-115 215 -381 215q-215 0 -351.5 -141.5t-136.5 -374t136.5 -373.5t351.5 -141q266 0 381 215h280q-80 -205 -257 -315.5t-404 -110.5q-305 0 -516 204.5t-211 521z" />
<glyph unicode="D" horiz-adv-x="1452" d="M154 0v1423h464q344 0 550 -193.5t206 -522t-205.5 -518t-550.5 -189.5h-464zM387 178h231q248 0 382.5 141.5t134.5 388t-134.5 387t-382.5 140.5h-231v-1057z" />
<glyph unicode="E" horiz-adv-x="1073" d="M154 0v1425h786v-182h-553v-432h492v-180h-492v-449h553v-182h-786z" />
<glyph unicode="F" horiz-adv-x="1054" d="M154 0v1423h837v-182h-604v-432h471v-180h-471v-629h-233z" />
<glyph unicode="G" horiz-adv-x="1583" d="M76 713.5q0 316.5 211 522.5t516 206q227 0 404 -111.5t257 -316.5h-280q-115 215 -381 215q-215 0 -351.5 -141.5t-136.5 -374t136.5 -373.5t339 -141t322.5 107.5t144 291.5h-534v182h784v-182q-33 -256 -229.5 -433t-488 -177t-502.5 204.5t-211 521z" />
<glyph unicode="H" horiz-adv-x="1443" d="M154 0v1423h233v-614h670v614h233v-1423h-233v629h-670v-629h-233z" />
<glyph unicode="I" horiz-adv-x="540" d="M154 0v1423h233v-1423h-233z" />
<glyph unicode="J" horiz-adv-x="1155" d="M90 397h236q2 -94 48 -149t136 -55t137 56t47 148v1026h236v-1026q0 -190 -116 -300.5t-304 -110.5t-304 110.5t-116 300.5z" />
<glyph unicode="K" horiz-adv-x="1296" d="M154 0v1423h233v-649l553 649h305l-643 -714l643 -709h-307l-551 637v-637h-233z" />
<glyph unicode="L" horiz-adv-x="909" d="M154 0v1423h233v-1245h481v-178h-714z" />
<glyph unicode="M" horiz-adv-x="1806" d="M154 0v1423h252l499 -1116l498 1116h250v-1423h-234v975l-434 -975h-162l-436 975v-975h-233z" />
<glyph unicode="N" horiz-adv-x="1476" d="M154 0v1425h233l703 -1060v1060h233v-1425h-233l-703 1063v-1063h-233z" />
<glyph unicode="O" horiz-adv-x="1605" d="M76 713.5q0 316.5 211 522.5t517 206t516 -206t210 -522.5t-210 -522t-516 -205.5t-517 205.5t-211 522zM315 713.5q0 -232.5 136.5 -374.5t351.5 -142t351 142t136 374.5t-136 374t-351 141.5t-351.5 -141.5t-136.5 -374z" />
<glyph unicode="P" horiz-adv-x="1218" d="M154 0v1423h491q242 0 373 -119.5t131 -299t-124 -303t-380 -123.5h-258v-578h-233zM387 760h258q133 0 198.5 63.5t65.5 177t-65.5 177t-198.5 63.5h-258v-481z" />
<glyph unicode="Q" horiz-adv-x="1611" d="M76 713.5q0 316.5 211 522.5t517 206t516 -206t210 -521q0 -197 -85 -355.5t-235 -255.5l342 -362h-297l-249 270q-92 -26 -203 -26q-305 0 -516 205.5t-211 522zM315 713.5q0 -232.5 136.5 -374.5t351.5 -142t351 142t136 374.5t-136 374t-351 141.5t-351.5 -141.5 t-136.5 -374z" />
<glyph unicode="R" horiz-adv-x="1294" d="M154 0v1423h491q242 0 373 -119.5t131 -304.5q0 -143 -87 -257.5t-267 -149.5l376 -592h-284l-357 578h-143v-578h-233zM387 760h258q133 0 198.5 63.5t65.5 177t-65.5 177t-198.5 63.5h-258v-481z" />
<glyph unicode="S" horiz-adv-x="1236" d="M123 379h250q8 -94 69.5 -149.5t180 -55.5t187.5 61.5t69 145.5t-42 131t-108.5 70.5t-146.5 42t-161 43t-147.5 63.5t-108.5 114t-42 183q0 186 134 300t348 114t342 -98.5t143 -284.5h-259q-8 82 -69.5 137t-165.5 55t-170 -53t-66 -154.5t78 -154.5t188.5 -78 t221 -56.5t188.5 -117.5t78 -243.5t-133 -282.5t-356.5 -125t-362.5 104.5t-139 288.5z" />
<glyph unicode="T" horiz-adv-x="1155" d="M80 1241v182h993v-182h-379v-1241h-233v1241h-381z" />
<glyph unicode="U" horiz-adv-x="1413" d="M152 520v903h233v-903q0 -162 85 -243.5t237.5 -81.5t237.5 81.5t85 243.5v903h234v-903q0 -258 -161 -396t-399.5 -138t-395 137t-156.5 397z" />
<glyph unicode="V" horiz-adv-x="1421" d="M39 1423h250l420 -1181l424 1181h247l-534 -1423h-271z" />
<glyph unicode="W" horiz-adv-x="2045" d="M39 1423h248l295 -1159l319 1159h262l297 -1153l297 1153h250l-422 -1423h-264l-299 1077l-317 -1077l-263 -2z" />
<glyph unicode="X" horiz-adv-x="1351" d="M102 0l443 711l-443 712h263l321 -518l303 518h262l-444 -712l442 -711h-262l-321 516l-301 -516h-263z" />
<glyph unicode="Y" horiz-adv-x="1239" d="M31 1423h260l327 -694l328 694h262l-471 -907v-516h-233v516z" />
<glyph unicode="Z" horiz-adv-x="1142" d="M102 0v182l668 1059h-668v182h938v-182l-669 -1059h669v-182h-938z" />
<glyph unicode="[" horiz-adv-x="993" d="M303 -360v2293h426v-192h-207v-1907h207v-194h-426z" />
<glyph unicode="\" horiz-adv-x="1468" d="M336 1933h229l615 -2291h-230z" />
<glyph unicode="]" horiz-adv-x="991" d="M262 -166h209v1907h-209v192h426v-2293h-426v194z" />
<glyph unicode="^" horiz-adv-x="1339" d="M74 344l485 1081h221l488 -1081h-244l-352 799l-357 -799h-241z" />
<glyph unicode="_" horiz-adv-x="1634" d="M258 -82h1143v-217h-1143v217z" />
<glyph unicode="`" horiz-adv-x="520" d="M20 1432v198l453 -250v-172z" />
<glyph unicode="a" d="M76 568q0 257 152.5 418t379.5 161q133 0 234.5 -60.5t156.5 -158.5v200h236v-1128h-236v211q-57 -104 -157.5 -166.5t-233.5 -62.5q-225 0 -378.5 164.5t-153.5 421.5zM315 569q0 -174 101.5 -279.5t241 -105.5t240.5 103.5t101 277.5t-101 276.5t-240.5 102.5 t-241 -100.5t-101.5 -274.5z" />
<glyph unicode="b" d="M154 0v1516h233v-588q57 98 158.5 158.5t234.5 60.5q227 0 379 -161t152 -418t-152.5 -421.5t-378.5 -164.5q-133 0 -233.5 62t-159.5 167v-211h-233zM387 565q0 -174 101.5 -277.5t240.5 -103.5t241.5 105.5t102.5 279.5t-101.5 274.5t-241.5 100.5t-241.5 -102.5 t-101.5 -276.5z" />
<glyph unicode="c" horiz-adv-x="1228" d="M76 564q0 263 154.5 423t398.5 160q205 0 339 -97.5t181 -277.5h-252q-63 178 -268 178q-143 0 -228.5 -101t-85.5 -283.5t85 -285t229 -102.5q203 0 268 178h252q-49 -172 -184.5 -273t-335.5 -101q-246 0 -399.5 159.5t-153.5 422.5z" />
<glyph unicode="d" d="M76 568q0 257 152.5 418t379.5 161q133 0 234.5 -60.5t156.5 -158.5v588h236v-1516h-236v211q-57 -104 -157.5 -166.5t-233.5 -62.5q-225 0 -378.5 164.5t-153.5 421.5zM315 569q0 -174 101.5 -279.5t241 -105.5t240.5 103.5t101 277.5t-101 276.5t-240.5 102.5 t-241 -100.5t-101.5 -274.5z" />
<glyph unicode="e" horiz-adv-x="1263" d="M76 565q0 264 155.5 423t402.5 159t400.5 -152.5t153.5 -398.5q0 -59 -8 -111h-865q8 -141 95.5 -224t218.5 -83q190 0 268 158h252q-51 -156 -186 -255t-334 -99q-246 0 -399.5 159.5t-153.5 423.5zM317 645h627q-2 139 -92 222t-219 83t-216 -83t-100 -222z" />
<glyph unicode="f" horiz-adv-x="679" d="M49 938v190h133v80q0 195 103.5 284t324.5 89v-195q-106 0 -149 -39.5t-43 -138.5v-80h209v-190h-209v-938h-236v938h-133z" />
<glyph unicode="g" d="M76 568q0 257 152.5 418t379.5 161q133 0 234.5 -60.5t156.5 -158.5v200h236v-1146q0 -238 -146.5 -388.5t-390 -150.5t-395 107.5t-172.5 291.5h231q27 -88 114 -142t218 -54t218 86t87 250v229q-57 -104 -157.5 -166.5t-233.5 -62.5q-225 0 -378.5 164.5t-153.5 421.5z M315 569q0 -174 101.5 -279.5t241 -105.5t240.5 103.5t101 277.5t-101 276.5t-240.5 102.5t-241 -100.5t-101.5 -274.5z" />
<glyph unicode="h" horiz-adv-x="1329" d="M154 0v1516h233v-566q113 197 361 197q190 0 314 -127t124 -354v-666h-232v631q0 152 -75.5 232.5t-206.5 80.5t-208 -81t-77 -232v-631h-233z" />
<glyph unicode="i" horiz-adv-x="540" d="M123 1427.5q0 63.5 43 106.5t105.5 43t105.5 -43t43 -106.5t-43 -106.5t-105.5 -43t-105.5 43t-43 106.5zM154 0v1128h233v-1128h-233z" />
<glyph unicode="j" horiz-adv-x="540" d="M-57 -340h80q72 0 101.5 27.5t29.5 91.5v1349h233v-1349q0 -315 -324 -316h-120v197zM123 1427.5q0 63.5 43 106.5t105.5 43t105.5 -43t43 -106.5t-43 -106.5t-105.5 -43t-105.5 43t-43 106.5z" />
<glyph unicode="k" horiz-adv-x="1134" d="M154 0v1516h233v-881l410 493h323l-520 -565l520 -563h-315l-418 485v-485h-233z" />
<glyph unicode="l" horiz-adv-x="540" d="M154 0v1516h233v-1516h-233z" />
<glyph unicode="m" horiz-adv-x="2127" d="M154 0v1128h233v-178q113 197 361 197q131 0 233 -61.5t156 -178.5q59 113 164.5 176.5t238.5 63.5q195 0 320 -126t125 -355v-666h-234v631q0 152 -76 232.5t-207 80.5t-206.5 -81t-75.5 -232v-631h-232v631q0 152 -75.5 232.5t-206.5 80.5t-208 -81t-77 -232v-631h-233 z" />
<glyph unicode="n" horiz-adv-x="1329" d="M154 0v1128h233v-178q113 197 361 197q190 0 314 -127t124 -354v-666h-232v631q0 152 -75.5 232.5t-206.5 80.5t-208 -81t-77 -232v-631h-233z" />
<glyph unicode="o" horiz-adv-x="1306" d="M78 564q0 261 165 422t410.5 161t410.5 -161t165 -421t-169 -421.5t-416 -161.5t-406.5 160.5t-159.5 421.5zM315 564.5q0 -183.5 94.5 -285t234.5 -101.5t242.5 102.5t102.5 285t-99 283.5t-240.5 101t-238 -101t-96.5 -284.5z" />
<glyph unicode="p" d="M154 -537v1665h233v-200q57 98 158.5 158.5t234.5 60.5q227 0 379 -161t152 -418t-152.5 -421.5t-378.5 -164.5q-133 0 -233.5 62t-159.5 167v-748h-233zM387 565q0 -174 101.5 -277.5t240.5 -103.5t241.5 105.5t102.5 279.5t-101.5 274.5t-241.5 100.5t-241.5 -102.5 t-101.5 -276.5z" />
<glyph unicode="q" d="M76 568q0 257 152.5 418t379.5 161q133 0 234.5 -60.5t156.5 -158.5v200h236v-1665h-236v748q-57 -104 -157.5 -166.5t-233.5 -62.5q-225 0 -378.5 164.5t-153.5 421.5zM315 569q0 -174 101.5 -279.5t241 -105.5t240.5 103.5t101 277.5t-101 276.5t-240.5 102.5 t-241 -100.5t-101.5 -274.5z" />
<glyph unicode="r" horiz-adv-x="786" d="M154 0v1128h233v-196q109 215 338 215v-242h-59q-137 0 -208 -69.5t-71 -241.5v-594h-233z" />
<glyph unicode="s" horiz-adv-x="1093" d="M100 344h242q6 -84 61.5 -131t150.5 -47t151.5 42t56.5 111.5t-67.5 108.5t-165 58.5t-194.5 45t-165 93t-68 180.5q0 143 121 242.5t317.5 99.5t312.5 -97.5t124 -265.5h-240q-6 84 -58 131.5t-146.5 47.5t-147.5 -42t-53 -111t67.5 -107.5t165 -57t194.5 -45.5 t164.5 -97.5t67.5 -189.5q0 -147 -124 -239t-318.5 -92t-315 94t-133.5 268z" />
<glyph unicode="t" horiz-adv-x="761" d="M57 938v190h133v281h236v-281h274v-190h-274v-625q0 -63 29.5 -90.5t101.5 -27.5h143v-195h-184q-326 0 -326 313v625h-133z" />
<glyph unicode="u" horiz-adv-x="1329" d="M143 463v665h232v-630q0 -152 75.5 -233t206.5 -81t208 81t77 233v630h234v-1128h-234v178q-110 -194 -357 -194h-3q-190 0 -314.5 126t-124.5 353z" />
<glyph unicode="v" horiz-adv-x="1179" d="M20 1128h250l320 -919l319 919h252l-430 -1128h-282z" />
<glyph unicode="w" horiz-adv-x="1689" d="M20 1128h238l236 -907l239 907h244l229 -903l234 903h229l-350 -1128h-246l-227 834l-228 -834h-245z" />
<glyph unicode="x" horiz-adv-x="1021" d="M20 0l365 555l-365 573h265l243 -383l230 383h243l-364 -557l364 -571h-264l-243 383l-230 -383h-244z" />
<glyph unicode="y" horiz-adv-x="1191" d="M20 1128h261l317 -860l330 860h241l-692 -1658h-241l229 548z" />
<glyph unicode="z" horiz-adv-x="964" d="M90 0v190l514 748h-514v190h782v-190l-512 -748h512v-190h-782z" />
<glyph unicode="{" horiz-adv-x="1112" d="M258 715v94q203 31 203 250q0 70 -17.5 197.5t-17.5 201.5q0 393 260 510h236v-33q-123 -45 -196 -177t-73 -335q0 -88 16.5 -208.5t16.5 -184.5q0 -223 -213 -266v-4q213 -43 213 -266q0 -63 -16.5 -184.5t-16.5 -209.5q0 -203 73 -335t196 -177v-32h-236 q-260 117 -260 510q0 74 17.5 201.5t17.5 197.5q0 215 -203 250z" />
<glyph unicode="|" horiz-adv-x="663" d="M215 -231v1871h234v-1871h-234z" />
<glyph unicode="}" horiz-adv-x="1097" d="M193 -412q123 45 194.5 177.5t71.5 334.5q0 88 -16.5 209t-16.5 185q0 223 215 266v4q-215 45 -215 266q0 63 16.5 184t16.5 209q0 203 -72 335t-194 177v33h235q258 -115 258 -510q0 -74 -17.5 -202t-17.5 -197q0 -219 205 -250v-94q-205 -33 -205 -250q0 -70 17.5 -198 t17.5 -201q0 -395 -258 -510h-235v32z" />
<glyph unicode="~" horiz-adv-x="1132" d="M74 487q57 338 325 338q86 0 191.5 -66.5t158 -66.5t92.5 34t48 95h170q-57 -338 -328 -338q-86 0 -189.5 66.5t-157.5 66.5t-94 -33.5t-48 -95.5h-168z" />
<glyph unicode="&#xa1;" horiz-adv-x="882" d="M303 1006.5q0 58.5 41 99.5t99.5 41t99.5 -41t41 -99.5t-41 -99.5t-100.5 -41t-99.5 41t-40 99.5zM313 -387l27 1083h192l29 -1083h-248z" />
<glyph unicode="&#xa2;" horiz-adv-x="1413" d="M135 530.5q0 217.5 122 365.5t349 169v178h133v-178q176 -18 289 -116.5t129 -241.5h-217q-51 167 -266 167q-145 0 -231.5 -92t-86.5 -251.5t86 -251t232 -91.5q215 0 266 168h217q-16 -143 -129 -241.5t-289 -116.5v-178h-133v178q-227 20 -349 167.5t-122 365z" />
<glyph unicode="&#xa3;" horiz-adv-x="1323" d="M86 618v162h174q-43 129 -43 250q0 207 129 327t342 120t325.5 -123t116.5 -314h-212q0 111 -57.5 175.5t-173.5 64.5t-182.5 -63.5t-66.5 -179t47 -257.5h398v-162h-351q10 -47 11 -88q0 -199 -137 -344h737v-190h-948l-41 127q86 92 127 183t41 226q0 41 -11 86h-225z " />
<glyph unicode="&#xa4;" horiz-adv-x="1122" d="M123 440l119 121q-59 88 -59.5 213t63.5 213l-123 121l104 104l127 -127q92 51 208 51.5t208 -51.5l127 127l102 -104l-120 -121q63 -92 63 -215t-63 -211l120 -121l-102 -104l-127 125q-90 -53 -210 -53t-210 51l-123 -123zM367 772.5q0 -108.5 54 -168t136 -59.5 t140.5 59.5t58.5 168t-57.5 168.5t-139.5 60t-137 -60t-55 -168.5z" />
<glyph unicode="&#xa5;" horiz-adv-x="1239" d="M31 1423h260l327 -694l328 694h262l-319 -614h258v-168l-346 -4l-64 -121v-61h410v-168h-410v-287h-233v287h-410v168h410v61l-64 121l-346 4v168h256z" />
<glyph unicode="&#xa6;" horiz-adv-x="663" d="M215 -231v794h234v-794h-234zM215 846v794h234v-794h-234z" />
<glyph unicode="&#xa7;" horiz-adv-x="1183" d="M84 487q0 248 252 340q-184 104 -184 257t119.5 251.5t314 98.5t314.5 -89t120 -249h-234q-14 176 -196 176q-205 0 -205 -158q0 -70 63.5 -115t261 -115.5t294 -158.5t96.5 -225q0 -223 -250 -328q182 -104 182 -257t-119.5 -251t-314.5 -98t-314.5 89t-119.5 249h233 q14 -176 197 -176q205 0 205 157q0 70 -63.5 115t-261.5 115.5t-294 158.5t-96 213zM324 501q0 -89 74.5 -151.5t196.5 -62.5t193.5 61.5t71.5 151.5t-74.5 151.5t-195.5 61.5t-193.5 -61.5t-72.5 -150.5z" />
<glyph unicode="&#xa8;" horiz-adv-x="638" d="M20 1391.5q0 52.5 36 88.5t87.5 36t87 -36t35.5 -87.5t-35.5 -87t-88 -35.5t-87.5 34.5t-35 87zM373 1391.5q0 52.5 35.5 88.5t87 36t87 -36t35.5 -87.5t-35.5 -87t-88 -35.5t-87 34.5t-34.5 87z" />
<glyph unicode="&#xa9;" horiz-adv-x="1615" d="M94 712.5q0 321.5 199 525.5t515 204t515 -204t199 -525.5t-199 -526t-515 -204.5t-515 204.5t-199 526zM197 714q0 -290 165.5 -465t445 -175t445.5 175t166 465t-164.5 463t-446.5 173t-446.5 -173t-164.5 -463zM356 715q0 211 127 340t303.5 129t287 -79t149.5 -222 h-213q-43 135 -207 135q-109 0 -174.5 -78t-65.5 -225.5t65.5 -226t174.5 -78.5q154 0 207 135h213q-39 -135 -151.5 -218t-268.5 -83q-190 0 -318.5 130t-128.5 341z" />
<glyph unicode="&#xaa;" horiz-adv-x="933" d="M63 1084.5q0 160.5 99.5 264t245.5 103.5q184 0 258 -137v125h182v-717h-182v125q-76 -137 -258 -137q-146 0 -245.5 106.5t-99.5 267zM252 1082.5q0 -105.5 61.5 -168t146.5 -62.5t145.5 61.5t60.5 168t-60.5 168t-146.5 61.5t-146.5 -61.5t-60.5 -167z" />
<glyph unicode="&#xab;" horiz-adv-x="1001" d="M92 604l189 359h225l-197 -359l197 -358h-225zM485 604l189 359h225l-197 -359l197 -358h-225z" />
<glyph unicode="&#xac;" horiz-adv-x="1531" d="M84 709v182h1337v-465h-233v283h-1104z" />
<glyph unicode="&#xad;" horiz-adv-x="1198" d="M178 643v197h842v-197h-842z" />
<glyph unicode="&#xae;" horiz-adv-x="1615" d="M94 712.5q0 321.5 203 525.5t526.5 204t525 -204t201.5 -525.5t-201.5 -526t-525 -204.5t-526.5 204.5t-203 526zM197 714q0 -290 169 -465t456.5 -175t456.5 175t169 465t-168 463t-456.5 173t-457.5 -173t-169 -463zM526 262v934h322q160 0 245 -79t85 -187.5 t-57.5 -183t-176.5 -97.5l248 -387h-184l-234 379h-96v-379h-152zM678 758h170q88 0 132 43t44 117q0 160 -176 159h-170v-319z" />
<glyph unicode="&#xaf;" horiz-adv-x="790" d="M20 1300v175h750v-175h-750z" />
<glyph unicode="&#xb0;" horiz-adv-x="874" d="M57 1075q0 164 106.5 263.5t273.5 99.5t273.5 -99.5t106.5 -263.5t-108.5 -264t-276.5 -100t-271.5 100t-103.5 264zM242 1074.5q0 -109.5 54 -168t136 -58.5t140.5 59.5t58.5 168t-57.5 169t-138.5 60.5t-137 -60.5t-56 -170z" />
<glyph unicode="&#xb1;" horiz-adv-x="1468" d="M213 254v207h410v295h-410v209h410v307h223v-307h409v-209h-409v-295h409v-207h-1042z" />
<glyph unicode="&#xb2;" horiz-adv-x="696" d="M55 1239q4 98 77 157.5t199 59.5t201.5 -68.5t75.5 -153.5t-44 -142.5t-148 -126.5l-150 -97h344v-147h-551v135l222 162q135 104 135 196q0 47 -25.5 75t-64.5 28q-76 0 -86 -78h-185z" />
<glyph unicode="&#xb3;" horiz-adv-x="700" d="M37 936h180q16 -90 113 -90q47 0 76.5 24.5t29.5 66.5t-30.5 65.5t-79.5 23.5h-76v119h69q111 0 111 86q0 41 -27.5 64.5t-76.5 23.5q-86 0 -107 -72h-174q8 92 88 150.5t203 58.5t207 -62.5t84 -152.5q0 -121 -125 -158v-4q131 -47 131 -166q0 -86 -85 -144t-216 -58 t-211 60t-84 165z" />
<glyph unicode="&#xb4;" horiz-adv-x="493" d="M20 1208v172l453 250v-198z" />
<glyph unicode="&#xb5;" horiz-adv-x="1339" d="M154 -537v1665h231v-630q0 -152 76 -233t207 -81t207.5 81t76.5 233v630h234v-1128h-234v178q-111 -195 -360 -194q-123 0 -207 63v-584h-231z" />
<glyph unicode="&#xb6;" horiz-adv-x="1290" d="M72 999.5q0 186.5 122.5 305t362.5 118.5h580v-1423h-207v1241h-137v-1241h-207v578h-29q-242 0 -363.5 117.5t-121.5 304z" />
<glyph unicode="&#xb7;" horiz-adv-x="499" d="M109 690.5q0 59.5 39.5 100t99 40.5t100.5 -40.5t41 -100t-41 -99.5t-100.5 -40t-99 40t-39.5 99.5z" />
<glyph unicode="&#xb8;" horiz-adv-x="571" d="M20 -389h224q57 0 85.5 16.5t28.5 59.5t-28.5 59t-85.5 16h-113v252h154v-112q119 0 192.5 -56.5t73.5 -159t-74 -163t-186 -60.5h-271v148z" />
<glyph unicode="&#xb9;" horiz-adv-x="428" d="M41 1303v139h293v-721h-182v582h-111z" />
<glyph unicode="&#xba;" horiz-adv-x="909" d="M63 1082q0 167 111 268.5t281 101.5t280.5 -101.5t110.5 -267t-114 -269t-282.5 -103.5t-277.5 102t-109 269zM252 1081.5q0 -112.5 57.5 -173t141.5 -60.5t145 61.5t61 172t-60 173t-144 62.5t-142.5 -61.5t-58.5 -174z" />
<glyph unicode="&#xbb;" horiz-adv-x="1001" d="M102 246l195 358l-195 359h224l190 -359l-190 -358h-224zM496 246l194 358l-194 359h223l190 -359l-190 -358h-223z" />
<glyph unicode="&#xbc;" horiz-adv-x="1396" d="M70 1303v139h292v-721h-182v582h-110zM129 0l784 1425h220l-783 -1425h-221zM662 137v103l309 483h254v-471h92v-115h-92v-137h-183v137h-380zM844 252h203v332z" />
<glyph unicode="&#xbd;" horiz-adv-x="1435" d="M70 1303v139h292v-721h-182v582h-110zM129 0l760 1425h221l-760 -1425h-221zM791 516q4 98 76.5 157.5t198.5 59.5t201.5 -68.5t75.5 -153.5t-44 -142.5t-148 -126.5l-150 -97h345v-147h-551v135l221 162q135 104 135 197q0 47 -25.5 74.5t-64.5 27.5q-76 0 -86 -78h-184 z" />
<glyph unicode="&#xbe;" horiz-adv-x="1519" d="M68 936h180q16 -90 112 -90q47 0 77 24.5t30 66.5t-30.5 65.5t-80.5 23.5h-75v119h69q111 0 111 86q0 41 -27.5 64.5t-77.5 23.5q-86 0 -106 -72h-174q8 92 88 150.5t202.5 58.5t206.5 -62.5t84 -152.5q0 -121 -125 -158v-4q131 -47 132 -166q0 -86 -85 -144t-216.5 -58 t-211 60t-83.5 165zM285 0l823 1425h219l-823 -1425h-219zM811 137v103l309 483h254v-471h92v-115h-92v-137h-182v137h-381zM993 252h203v332z" />
<glyph unicode="&#xbf;" horiz-adv-x="1296" d="M184 42q0 210 121 306t359 98v250h221v-409h-99q-193 2 -285.5 -50.5t-92.5 -205.5q0 -109 62 -170.5t173 -61.5t174.5 59.5t63.5 166.5h219q2 -189 -123 -305.5t-333 -116.5t-334 114.5t-126 324.5zM629 1005.5q0 59.5 41 100.5t99 41t99 -41t41 -100.5t-41 -100.5 t-99 -41t-99 41t-41 100.5z" />
<glyph unicode="&#xc0;" horiz-adv-x="1427" d="M70 0l510 1425h270l510 -1425h-246l-102 291h-596l-103 -291h-243zM473 1729v198l453 -250v-172zM479 473h469l-233 670z" />
<glyph unicode="&#xc1;" horiz-adv-x="1427" d="M70 0l510 1425h270l510 -1425h-246l-102 291h-596l-103 -291h-243zM473 1505v172l453 250v-198zM479 473h469l-233 670z" />
<glyph unicode="&#xc2;" horiz-adv-x="1427" d="M70 0l510 1425h270l510 -1425h-246l-102 291h-596l-103 -291h-243zM422 1518v182l293 170l293 -170v-182l-293 176zM479 473h469l-233 670z" />
<glyph unicode="&#xc3;" horiz-adv-x="1427" d="M70 0l510 1425h270l510 -1425h-246l-102 291h-596l-103 -291h-243zM381 1542q16 119 77.5 179.5t137.5 60.5t146.5 -45t107.5 -45q76 0 88 86h131q-16 -119 -77.5 -179.5t-137.5 -60.5t-146.5 46t-107.5 46q-76 0 -88 -88h-131zM479 473h469l-233 670z" />
<glyph unicode="&#xc4;" horiz-adv-x="1427" d="M70 0l510 1425h270l510 -1425h-246l-102 291h-596l-103 -291h-243zM416 1689.5q0 51.5 35.5 87t87 35.5t87.5 -35.5t36 -87t-36 -87t-87.5 -35.5t-87 35.5t-35.5 87zM479 473h469l-233 670zM768 1689.5q0 51.5 36 87t87 35.5t87 -35.5t36 -87t-36 -87t-87 -35.5t-87 35.5 t-36 87z" />
<glyph unicode="&#xc5;" horiz-adv-x="1427" d="M70 0l510 1425h270l510 -1425h-246l-102 291h-596l-103 -291h-243zM479 473h469l-233 670zM492 1760.5q0 101.5 64.5 163t159.5 61.5t158.5 -61.5t63.5 -163t-63.5 -163t-158.5 -61.5t-159.5 61.5t-64.5 163zM610 1762q0 -46 31 -75.5t75 -29.5t74.5 29.5t30.5 75.5 t-30.5 75t-75.5 29t-75 -29t-30 -75z" />
<glyph unicode="&#xc6;" horiz-adv-x="1886" d="M25 0l784 1425h942v-182h-551v-432h490v-180h-490v-449h551v-182h-784v291h-531l-157 -291h-254zM537 473h430v791z" />
<glyph unicode="&#xc7;" horiz-adv-x="1583" d="M76 725q0 305 211 511t516 206q227 0 404 -111.5t257 -316.5h-280q-115 215 -381 215q-215 0 -351.5 -141.5t-136.5 -374t136.5 -373.5t351.5 -141q266 0 381 215h280q-74 -188 -229.5 -297t-357.5 -125v-90q119 0 192.5 -56.5t73.5 -159t-74 -163t-186 -60.5h-271v148 h224q57 0 85.5 16.5t28.5 59.5t-28.5 59t-85.5 16h-113v230q-279 29 -463 228.5t-184 504.5z" />
<glyph unicode="&#xc8;" horiz-adv-x="1073" d="M154 0v1425h786v-182h-553v-432h492v-180h-492v-449h553v-182h-786zM295 1729v198l453 -250v-172z" />
<glyph unicode="&#xc9;" horiz-adv-x="1073" d="M154 0v1425h786v-182h-553v-432h492v-180h-492v-449h553v-182h-786zM295 1505v172l453 250v-198z" />
<glyph unicode="&#xca;" horiz-adv-x="1073" d="M154 0v1425h786v-182h-553v-432h492v-180h-492v-449h553v-182h-786zM244 1518v182l293 170l292 -170v-182l-292 176z" />
<glyph unicode="&#xcb;" horiz-adv-x="1073" d="M154 0v1425h786v-182h-553v-432h492v-180h-492v-449h553v-182h-786zM238 1689.5q0 51.5 35.5 87t87 35.5t87 -35.5t35.5 -87t-35.5 -87t-88 -35.5t-87 35.5t-34.5 87zM590 1689.5q0 51.5 36 87t87 35.5t87 -35.5t36 -87t-36 -87t-88.5 -35.5t-87 35.5t-34.5 87z" />
<glyph unicode="&#xcc;" horiz-adv-x="540" d="M29 1729v198l452 -250v-172zM154 0v1423h233v-1423h-233z" />
<glyph unicode="&#xcd;" horiz-adv-x="540" d="M29 1505v172l452 250v-198zM154 0v1423h233v-1423h-233z" />
<glyph unicode="&#xce;" horiz-adv-x="540" d="M-23 1518v182l293 170l293 -170v-182l-293 176zM154 0v1423h233v-1423h-233z" />
<glyph unicode="&#xcf;" horiz-adv-x="540" d="M-29 1689.5q0 51.5 36 87t87 35.5t87 -35.5t36 -87t-36 -87t-88 -35.5t-87 35.5t-35 87zM154 0v1423h233v-1423h-233zM324 1689.5q0 51.5 35.5 87t87 35.5t87 -35.5t35.5 -87t-35.5 -87t-88 -35.5t-87 35.5t-34.5 87z" />
<glyph unicode="&#xd0;" horiz-adv-x="1474" d="M18 600v215h158v608h467q344 0 549 -193.5t205 -522t-205 -518t-549 -189.5h-467v600h-158zM412 178h231q248 0 381 141.5t133 388t-133 387t-381 140.5h-231v-420h364v-215h-364v-422z" />
<glyph unicode="&#xd1;" horiz-adv-x="1476" d="M154 0v1425h233l703 -1060v1060h233v-1425h-233l-703 1063v-1063h-233zM406 1542q16 119 77.5 179.5t137 60.5t146.5 -45t107 -45q76 0 89 86h131q-16 -119 -78 -179.5t-137.5 -60.5t-146 46t-107.5 46q-76 0 -88 -88h-131z" />
<glyph unicode="&#xd2;" horiz-adv-x="1605" d="M76 713.5q0 316.5 211 522.5t517 206t516 -206t210 -522.5t-210 -522t-516 -205.5t-517 205.5t-211 522zM315 713.5q0 -232.5 136.5 -374.5t351.5 -142t351 142t136 374.5t-136 374t-351 141.5t-351.5 -141.5t-136.5 -374zM561 1729v198l453 -250v-172z" />
<glyph unicode="&#xd3;" horiz-adv-x="1605" d="M76 713.5q0 316.5 211 522.5t517 206t516 -206t210 -522.5t-210 -522t-516 -205.5t-517 205.5t-211 522zM315 713.5q0 -232.5 136.5 -374.5t351.5 -142t351 142t136 374.5t-136 374t-351 141.5t-351.5 -141.5t-136.5 -374zM561 1505v172l453 250v-198z" />
<glyph unicode="&#xd4;" horiz-adv-x="1605" d="M76 713.5q0 316.5 211 522.5t517 206t516 -206t210 -522.5t-210 -522t-516 -205.5t-517 205.5t-211 522zM315 713.5q0 -232.5 136.5 -374.5t351.5 -142t351 142t136 374.5t-136 374t-351 141.5t-351.5 -141.5t-136.5 -374zM510 1518v182l293 170l293 -170v-182l-293 176z " />
<glyph unicode="&#xd5;" horiz-adv-x="1605" d="M76 713.5q0 316.5 211 522.5t517 206t516 -206t210 -522.5t-210 -522t-516 -205.5t-517 205.5t-211 522zM315 713.5q0 -232.5 136.5 -374.5t351.5 -142t351 142t136 374.5t-136 374t-351 141.5t-351.5 -141.5t-136.5 -374zM469 1542q16 119 77.5 179.5t137.5 60.5 t146.5 -45t107.5 -45q76 0 88 86h131q-16 -119 -77.5 -179.5t-137.5 -60.5t-146.5 46t-107.5 46q-76 0 -88 -88h-131z" />
<glyph unicode="&#xd6;" horiz-adv-x="1605" d="M76 713.5q0 316.5 211 522.5t517 206t516 -206t210 -522.5t-210 -522t-516 -205.5t-517 205.5t-211 522zM315 713.5q0 -232.5 136.5 -374.5t351.5 -142t351 142t136 374.5t-136 374t-351 141.5t-351.5 -141.5t-136.5 -374zM504 1689.5q0 51.5 35.5 87t87 35.5t87.5 -35.5 t36 -87t-36 -87t-88.5 -35.5t-87 35.5t-34.5 87zM856 1689.5q0 51.5 36 87t87 35.5t87 -35.5t36 -87t-36 -87t-88 -35.5t-87 35.5t-35 87z" />
<glyph unicode="&#xd7;" horiz-adv-x="1431" d="M252 436l313 312l-305 305l150 149l305 -305l305 305l154 -153l-306 -306l310 -311l-150 -149l-311 311l-311 -311z" />
<glyph unicode="&#xd8;" horiz-adv-x="1605" d="M53 0l205 221q-182 205 -182 507t211 508t516 206q256 0 446 -144l117 127h186l-202 -219q180 -203 180 -506t-210 -508.5t-517 -205.5q-254 0 -445 143l-118 -129h-187zM315 715q0 -190 97 -326l688 748q-125 92 -297 92q-215 0 -351.5 -141.5t-136.5 -372.5zM508 291 q123 -94 295 -94q215 0 351 142t136 376q0 186 -94 323z" />
<glyph unicode="&#xd9;" horiz-adv-x="1413" d="M152 520v903h233v-903q0 -162 85 -243.5t237.5 -81.5t237.5 81.5t85 243.5v903h234v-903q0 -258 -161 -396t-399.5 -138t-395 137t-156.5 397zM465 1729v198l453 -250v-172z" />
<glyph unicode="&#xda;" horiz-adv-x="1413" d="M152 520v903h233v-903q0 -162 85 -243.5t237.5 -81.5t237.5 81.5t85 243.5v903h234v-903q0 -258 -161 -396t-399.5 -138t-395 137t-156.5 397zM465 1505v172l453 250v-198z" />
<glyph unicode="&#xdb;" horiz-adv-x="1413" d="M152 520v903h233v-903q0 -162 85 -243.5t237.5 -81.5t237.5 81.5t85 243.5v903h234v-903q0 -258 -161 -396t-399.5 -138t-395 137t-156.5 397zM414 1518v182l293 170l292 -170v-182l-292 176z" />
<glyph unicode="&#xdc;" horiz-adv-x="1413" d="M152 520v903h233v-903q0 -162 85 -243.5t237.5 -81.5t237.5 81.5t85 243.5v903h234v-903q0 -258 -161 -396t-399.5 -138t-395 137t-156.5 397zM408 1689.5q0 51.5 35.5 87t87 35.5t87 -35.5t35.5 -87t-35.5 -87t-87 -35.5t-87 35.5t-35.5 87zM760 1689.5q0 51.5 35.5 87 t87 35.5t87.5 -35.5t36 -87t-36 -87t-87.5 -35.5t-87 35.5t-35.5 87z" />
<glyph unicode="&#xdd;" horiz-adv-x="1239" d="M31 1423h260l327 -694l328 694h262l-471 -907v-516h-233v516zM379 1505v172l452 250v-198z" />
<glyph unicode="&#xde;" horiz-adv-x="1218" d="M154 0v1425h231v-288h260q242 0 373 -120t131 -299t-124 -303t-380 -124h-258v-291h-233zM387 473h258q133 0 198.5 63.5t65.5 176t-65.5 177t-198.5 64.5h-258v-481z" />
<glyph unicode="&#xdf;" horiz-adv-x="1396" d="M154 0v1108q0 197 124.5 312.5t330.5 115.5t318.5 -105.5t112.5 -250.5q0 -170 -176 -269l203 -123q147 -90 210.5 -183t63.5 -228q0 -176 -123.5 -285.5t-290.5 -109.5t-283 100t-116 270h197q8 -78 57 -122t134 -44t135.5 56.5t50.5 128t-37 123t-121 102.5l-319 197 v110l59 33q117 63 117 194q0 86 -57.5 144.5t-146.5 58.5t-149.5 -60.5t-60.5 -160.5v-1112h-233z" />
<glyph unicode="&#xe0;" d="M76 568q0 257 152.5 418t379.5 161q133 0 234.5 -60.5t156.5 -158.5v200h236v-1128h-236v211q-57 -104 -157.5 -166.5t-233.5 -62.5q-225 0 -378.5 164.5t-153.5 421.5zM315 569q0 -174 101.5 -279.5t241 -105.5t240.5 103.5t101 277.5t-101 276.5t-240.5 102.5 t-241 -100.5t-101.5 -274.5zM453 1432v198l452 -250v-172z" />
<glyph unicode="&#xe1;" d="M76 568q0 257 152.5 418t379.5 161q133 0 234.5 -60.5t156.5 -158.5v200h236v-1128h-236v211q-57 -104 -157.5 -166.5t-233.5 -62.5q-225 0 -378.5 164.5t-153.5 421.5zM315 569q0 -174 101.5 -279.5t241 -105.5t240.5 103.5t101 277.5t-101 276.5t-240.5 102.5 t-241 -100.5t-101.5 -274.5zM453 1208v172l452 250v-198z" />
<glyph unicode="&#xe2;" d="M76 568q0 257 152.5 418t379.5 161q133 0 234.5 -60.5t156.5 -158.5v200h236v-1128h-236v211q-57 -104 -157.5 -166.5t-233.5 -62.5q-225 0 -378.5 164.5t-153.5 421.5zM315 569q0 -174 101.5 -279.5t241 -105.5t240.5 103.5t101 277.5t-101 276.5t-240.5 102.5 t-241 -100.5t-101.5 -274.5zM401 1221v182l293 170l293 -170v-182l-293 176z" />
<glyph unicode="&#xe3;" d="M76 568q0 257 152.5 418t379.5 161q133 0 234.5 -60.5t156.5 -158.5v200h236v-1128h-236v211q-57 -104 -157.5 -166.5t-233.5 -62.5q-225 0 -378.5 164.5t-153.5 421.5zM315 569q0 -174 101.5 -279.5t241 -105.5t240.5 103.5t101 277.5t-101 276.5t-240.5 102.5 t-241 -100.5t-101.5 -274.5zM360 1245q17 119 78.5 179.5t137 60.5t146.5 -45t107 -45q76 0 89 86h131q-16 -119 -78 -179.5t-137.5 -60.5t-146.5 46t-107 46q-76 0 -88 -88h-132z" />
<glyph unicode="&#xe4;" d="M76 568q0 257 152.5 418t379.5 161q133 0 234.5 -60.5t156.5 -158.5v200h236v-1128h-236v211q-57 -104 -157.5 -166.5t-233.5 -62.5q-225 0 -378.5 164.5t-153.5 421.5zM315 569q0 -174 101.5 -279.5t241 -105.5t240.5 103.5t101 277.5t-101 276.5t-240.5 102.5 t-241 -100.5t-101.5 -274.5zM395 1391.5q0 52.5 36 88.5t87 36t87 -36t36 -87.5t-36 -87t-87 -35.5t-87 34.5t-36 87zM748 1391.5q0 52.5 35.5 88.5t87 36t87 -36t35.5 -87.5t-35.5 -87t-87 -35.5t-87 34.5t-35.5 87z" />
<glyph unicode="&#xe5;" d="M76 568q0 257 152.5 418t379.5 161q133 0 234.5 -60.5t156.5 -158.5v200h236v-1128h-236v211q-57 -104 -157.5 -166.5t-233.5 -62.5q-225 0 -378.5 164.5t-153.5 421.5zM315 569q0 -174 101.5 -279.5t241 -105.5t240.5 103.5t101 277.5t-101 276.5t-240.5 102.5 t-241 -100.5t-101.5 -274.5zM471 1463.5q0 101.5 64.5 163t160 61.5t159 -61.5t63.5 -163t-63.5 -163t-159 -61.5t-160 61.5t-64.5 163zM590 1465q0 -46 30.5 -75.5t74.5 -29.5t75 29.5t31 75.5t-31 75t-76 29t-74.5 -29t-29.5 -75z" />
<glyph unicode="&#xe6;" horiz-adv-x="2228" d="M76 569q0 258 154.5 418t397 160t369.5 -191v172h234v-172q141 190 382.5 190.5t390 -154t148.5 -396.5q0 -59 -8 -111h-882q18 -145 113 -226t216 -81q203 0 271 158h254q-51 -156 -180.5 -255t-313.5 -99q-123 0 -228.5 55t-162.5 147v-184h-234v184 q-137 -203 -375.5 -202.5t-392 165t-153.5 422.5zM315 569q0 -174 101.5 -279.5t241 -105.5t240.5 103.5t101 277.5t-101 276.5t-240.5 102.5t-241 -100.5t-101.5 -274.5zM1262 645h649q-2 139 -90 222t-220.5 83t-227.5 -85t-111 -220z" />
<glyph unicode="&#xe7;" horiz-adv-x="1228" d="M76 576.5q0 250.5 154.5 410.5t398.5 160q205 0 339 -97.5t181 -277.5h-252q-63 178 -268 178q-143 0 -228.5 -101t-85.5 -283.5t85 -285t229 -102.5q203 0 268 178h252q-45 -156 -161 -255t-290 -115v-84q119 0 193 -56.5t74 -159t-74 -163t-186 -60.5h-271v148h223 q57 0 86 16.5t29 59.5t-28.5 59t-86.5 16h-112v226q-211 27 -340 182.5t-129 406z" />
<glyph unicode="&#xe8;" horiz-adv-x="1263" d="M76 565q0 264 155.5 423t402.5 159t400.5 -152.5t153.5 -398.5q0 -59 -8 -111h-865q8 -141 95.5 -224t218.5 -83q190 0 268 158h252q-51 -156 -186 -255t-334 -99q-246 0 -399.5 159.5t-153.5 423.5zM317 645h627q-2 139 -92 222t-219 83t-216 -83t-100 -222zM389 1432 v198l453 -250v-172z" />
<glyph unicode="&#xe9;" horiz-adv-x="1263" d="M76 565q0 264 155.5 423t402.5 159t400.5 -152.5t153.5 -398.5q0 -59 -8 -111h-865q8 -141 95.5 -224t218.5 -83q190 0 268 158h252q-51 -156 -186 -255t-334 -99q-246 0 -399.5 159.5t-153.5 423.5zM317 645h627q-2 139 -92 222t-219 83t-216 -83t-100 -222zM389 1208 v172l453 250v-198z" />
<glyph unicode="&#xea;" horiz-adv-x="1263" d="M76 565q0 264 155.5 423t402.5 159t400.5 -152.5t153.5 -398.5q0 -59 -8 -111h-865q8 -141 95.5 -224t218.5 -83q190 0 268 158h252q-51 -156 -186 -255t-334 -99q-246 0 -399.5 159.5t-153.5 423.5zM317 645h627q-2 139 -92 222t-219 83t-216 -83t-100 -222zM338 1221 v182l293 170l293 -170v-182l-293 176z" />
<glyph unicode="&#xeb;" horiz-adv-x="1263" d="M76 565q0 264 155.5 423t402.5 159t400.5 -152.5t153.5 -398.5q0 -59 -8 -111h-865q8 -141 95.5 -224t218.5 -83q190 0 268 158h252q-51 -156 -186 -255t-334 -99q-246 0 -399.5 159.5t-153.5 423.5zM317 645h627q-2 139 -92 222t-219 83t-216 -83t-100 -222zM334 1391.5 q0 52.5 36 88.5t87 36t87 -36t36 -87.5t-36 -87t-87 -35.5t-87 34.5t-36 87zM686 1391.5q0 52.5 36 88.5t87 36t87 -36t36 -87.5t-36 -87t-87 -35.5t-87 34.5t-36 87z" />
<glyph unicode="&#xec;" horiz-adv-x="540" d="M29 1432v198l452 -250v-172zM154 0v1128h233v-1128h-233z" />
<glyph unicode="&#xed;" horiz-adv-x="540" d="M29 1208v172l452 250v-198zM154 0v1128h233v-1128h-233z" />
<glyph unicode="&#xee;" horiz-adv-x="540" d="M-23 1221v182l293 170l293 -170v-182l-293 176zM154 0v1128h233v-1128h-233z" />
<glyph unicode="&#xef;" horiz-adv-x="540" d="M-29 1391.5q0 52.5 36 88.5t87 36t87 -36t36 -87.5t-36 -87t-88 -35.5t-87 34.5t-35 87zM154 0v1128h233v-1128h-233zM324 1391.5q0 52.5 35.5 88.5t87 36t87 -36t35.5 -87.5t-35.5 -87t-88 -35.5t-87 34.5t-34.5 87z" />
<glyph unicode="&#xf0;" horiz-adv-x="1302" d="M76 564q0 261 160.5 422t404.5 161q172 0 313 -117q-57 133 -161 256l-252 -82v125l161 53q-70 66 -151 134h237q43 -37 84 -78l256 84v-125l-165 -56q264 -311 264 -692q0 -322 -162 -494.5t-415 -172.5t-413.5 160.5t-160.5 421.5zM315 564.5q0 -183.5 94.5 -285 t234.5 -101.5t241.5 102.5t101.5 285t-99.5 283.5t-239.5 101t-236.5 -101t-96.5 -284.5z" />
<glyph unicode="&#xf1;" horiz-adv-x="1329" d="M154 0v1128h233v-178q113 197 361 197q190 0 314 -127t124 -354v-666h-232v631q0 152 -75.5 232.5t-206.5 80.5t-208 -81t-77 -232v-631h-233zM352 1245q16 119 78 179.5t137.5 60.5t146 -45t107.5 -45q76 0 88 86h131q-16 -119 -77.5 -179.5t-137 -60.5t-146.5 46 t-108 46q-76 0 -88 -88h-131z" />
<glyph unicode="&#xf2;" horiz-adv-x="1306" d="M78 564q0 261 165 422t410.5 161t410.5 -161t165 -421t-169 -421.5t-416 -161.5t-406.5 160.5t-159.5 421.5zM315 564.5q0 -183.5 94.5 -285t234.5 -101.5t242.5 102.5t102.5 285t-99 283.5t-240.5 101t-238 -101t-96.5 -284.5zM412 1432v198l452 -250v-172z" />
<glyph unicode="&#xf3;" horiz-adv-x="1306" d="M78 564q0 261 165 422t410.5 161t410.5 -161t165 -421t-169 -421.5t-416 -161.5t-406.5 160.5t-159.5 421.5zM315 564.5q0 -183.5 94.5 -285t234.5 -101.5t242.5 102.5t102.5 285t-99 283.5t-240.5 101t-238 -101t-96.5 -284.5zM412 1208v172l452 250v-198z" />
<glyph unicode="&#xf4;" horiz-adv-x="1306" d="M78 564q0 261 165 422t410.5 161t410.5 -161t165 -421t-169 -421.5t-416 -161.5t-406.5 160.5t-159.5 421.5zM315 564.5q0 -183.5 94.5 -285t234.5 -101.5t242.5 102.5t102.5 285t-99 283.5t-240.5 101t-238 -101t-96.5 -284.5zM360 1221v182l293 170l293 -170v-182 l-293 176z" />
<glyph unicode="&#xf5;" horiz-adv-x="1306" d="M78 564q0 261 165 422t410.5 161t410.5 -161t165 -421t-169 -421.5t-416 -161.5t-406.5 160.5t-159.5 421.5zM315 564.5q0 -183.5 94.5 -285t234.5 -101.5t242.5 102.5t102.5 285t-99 283.5t-240.5 101t-238 -101t-96.5 -284.5zM319 1245q17 119 78.5 179.5t137 60.5 t146.5 -45t107 -45q76 0 89 86h131q-16 -119 -78 -179.5t-137.5 -60.5t-146.5 46t-107 46q-76 0 -88 -88h-132z" />
<glyph unicode="&#xf6;" horiz-adv-x="1306" d="M78 564q0 261 165 422t410.5 161t410.5 -161t165 -421t-169 -421.5t-416 -161.5t-406.5 160.5t-159.5 421.5zM315 564.5q0 -183.5 94.5 -285t234.5 -101.5t242.5 102.5t102.5 285t-99 283.5t-240.5 101t-238 -101t-96.5 -284.5zM354 1391.5q0 52.5 36 88.5t87 36t87 -36 t36 -87.5t-36 -87t-87 -35.5t-87 34.5t-36 87zM707 1391.5q0 52.5 35.5 88.5t87 36t87 -36t35.5 -87.5t-35.5 -87t-87 -35.5t-87 34.5t-35.5 87z" />
<glyph unicode="&#xf7;" horiz-adv-x="1390" d="M184 637v207h1045v-207h-1045zM565 304q0 58 41 99t100.5 41t100.5 -41t41 -99t-41 -99t-100.5 -41t-100.5 41t-41 99zM565 1175.5q0 57.5 41 99.5t100.5 42t100.5 -42t41 -99.5t-41 -99.5t-100.5 -42t-100.5 42t-41 99.5z" />
<glyph unicode="&#xf8;" horiz-adv-x="1306" d="M57 0l156 170q-135 158 -135 406.5t165 409.5t410 161q201 0 351 -109l83 90h162l-157 -172q137 -158 137 -404.5t-169 -408t-417 -161.5q-197 0 -342 106l-82 -88h-162zM315 565q0 -133 52 -225l491 537q-90 74 -220 73.5t-226.5 -101.5t-96.5 -284zM444 246 q84 -68 212 -68t230.5 102.5t102.5 284.5q0 127 -53 219z" />
<glyph unicode="&#xf9;" horiz-adv-x="1329" d="M143 463v665h232v-630q0 -152 75.5 -233t206.5 -81t208 81t77 233v630h234v-1128h-234v178q-111 -195 -360 -194q-190 0 -314.5 126t-124.5 353zM424 1432v198l453 -250v-172z" />
<glyph unicode="&#xfa;" horiz-adv-x="1329" d="M143 463v665h232v-630q0 -152 75.5 -233t206.5 -81t208 81t77 233v630h234v-1128h-234v178q-111 -195 -360 -194q-190 0 -314.5 126t-124.5 353zM424 1208v172l453 250v-198z" />
<glyph unicode="&#xfb;" horiz-adv-x="1329" d="M143 463v665h232v-630q0 -152 75.5 -233t206.5 -81t208 81t77 233v630h234v-1128h-234v178q-111 -195 -360 -194q-190 0 -314.5 126t-124.5 353zM373 1221v182l293 170l292 -170v-182l-292 176z" />
<glyph unicode="&#xfc;" horiz-adv-x="1329" d="M143 463v665h232v-630q0 -152 75.5 -233t206.5 -81t208 81t77 233v630h234v-1128h-234v178q-111 -195 -360 -194q-190 0 -314.5 126t-124.5 353zM367 1391.5q0 52.5 35.5 88.5t87 36t87 -36t35.5 -87.5t-35.5 -87t-87 -35.5t-87 34.5t-35.5 87zM719 1391.5 q0 52.5 36 88.5t87 36t87 -36t36 -87.5t-36 -87t-87 -35.5t-87 34.5t-36 87z" />
<glyph unicode="&#xfd;" horiz-adv-x="1191" d="M20 1128h261l317 -860l330 860h241l-692 -1658h-241l229 548zM354 1208v172l453 250v-198z" />
<glyph unicode="&#xfe;" d="M154 -537v2053h233v-588q57 98 158.5 158.5t234.5 60.5q227 0 379 -161t152 -418t-152.5 -421.5t-378.5 -164.5q-133 0 -233.5 62t-159.5 167v-748h-233zM387 565q0 -174 101.5 -277.5t240.5 -103.5t241.5 105.5t102.5 279.5t-101.5 274.5t-241.5 100.5t-241.5 -102.5 t-101.5 -276.5z" />
<glyph unicode="&#xff;" horiz-adv-x="1191" d="M20 1128h261l317 -860l330 860h241l-692 -1658h-241l229 548zM297 1391.5q0 52.5 36 88.5t87 36t87 -36t36 -87.5t-36 -87t-87 -35.5t-87 34.5t-36 87zM649 1391.5q0 52.5 36 88.5t87 36t87 -36t36 -87.5t-36 -87t-87 -35.5t-87 34.5t-36 87z" />
<glyph unicode="&#x152;" horiz-adv-x="2209" d="M76 714.5q0 317.5 211 522.5t519 205t484 -244v225h787v-182h-553v-432h491v-180h-491v-447h553v-182h-787v227q-178 -242 -485 -241.5t-518 206t-211 523zM315 713.5q0 -232.5 136.5 -374.5t351.5 -142t351 142t136 374.5t-136 374t-351 141.5t-351.5 -141.5 t-136.5 -374z" />
<glyph unicode="&#x153;" horiz-adv-x="2174" d="M76 564q0 261 166 422t411 161q139 0 257 -61.5t194 -172.5q150 233 446 234q242 0 395.5 -152.5t153.5 -398.5q0 -59 -8 -111h-862q8 -141 94 -224t217 -83q190 0 268 158h252q-51 -156 -186 -255t-334 -99q-291 0 -438 237q-76 -113 -197 -175t-262 -62 q-246 0 -406.5 160.5t-160.5 421.5zM315 564.5q0 -183.5 94.5 -285t234.5 -101.5t241.5 102.5t101.5 285t-99.5 283.5t-239.5 101t-236.5 -101t-96.5 -284.5zM1231 645h624q-2 139 -92 222t-219 83t-215 -82t-98 -223z" />
<glyph unicode="&#x178;" horiz-adv-x="1239" d="M31 1423h260l327 -694l328 694h262l-471 -907v-516h-233v516zM322 1689.5q0 51.5 35.5 87t87 35.5t87 -35.5t35.5 -87t-35.5 -87t-87 -35.5t-87 35.5t-35.5 87zM674 1689.5q0 51.5 35.5 87t87 35.5t87.5 -35.5t36 -87t-36 -87t-87.5 -35.5t-87 35.5t-35.5 87z" />
<glyph unicode="&#x2c6;" horiz-adv-x="626" d="M20 1221v182l293 170l293 -170v-182l-293 176z" />
<glyph unicode="&#x2dc;" horiz-adv-x="729" d="M20 1245q17 119 78.5 179.5t137 60.5t146.5 -45t107 -45q76 0 89 86h131q-16 -119 -78 -179.5t-137.5 -60.5t-146.5 46t-107 46q-76 0 -88 -88h-132z" />
<glyph unicode="&#x2000;" horiz-adv-x="1012" />
<glyph unicode="&#x2001;" horiz-adv-x="2025" />
<glyph unicode="&#x2002;" horiz-adv-x="1012" />
<glyph unicode="&#x2003;" horiz-adv-x="2025" />
<glyph unicode="&#x2004;" horiz-adv-x="675" />
<glyph unicode="&#x2005;" horiz-adv-x="506" />
<glyph unicode="&#x2006;" horiz-adv-x="337" />
<glyph unicode="&#x2007;" horiz-adv-x="337" />
<glyph unicode="&#x2008;" horiz-adv-x="253" />
<glyph unicode="&#x2009;" horiz-adv-x="405" />
<glyph unicode="&#x200a;" horiz-adv-x="112" />
<glyph unicode="&#x2010;" horiz-adv-x="1198" d="M178 643v197h842v-197h-842z" />
<glyph unicode="&#x2011;" horiz-adv-x="1198" d="M178 643v197h842v-197h-842z" />
<glyph unicode="&#x2012;" horiz-adv-x="1198" d="M178 643v197h842v-197h-842z" />
<glyph unicode="&#x2013;" horiz-adv-x="1449" d="M178 643v197h1096v-197h-1096z" />
<glyph unicode="&#x2014;" horiz-adv-x="1892" d="M178 643v197h1536v-197h-1536z" />
<glyph unicode="&#x2018;" horiz-adv-x="358" d="M59 1382q0 256 230 256v-102q-98 0 -99 -117v-43h107v-196h-211q-27 109 -27 202z" />
<glyph unicode="&#x2019;" horiz-adv-x="358" d="M61 1440v196h211q27 -109 27 -202q0 -256 -229 -256v102q98 0 98 117v43h-107z" />
<glyph unicode="&#x201a;" horiz-adv-x="413" d="M74 -66v226h221q80 -303 -29 -414q-59 -63 -174 -63v102q51 0 74.5 24.5t23.5 81.5v43h-116z" />
<glyph unicode="&#x201c;" horiz-adv-x="667" d="M59 1382q0 256 230 256v-102q-98 0 -99 -117v-43h107v-196h-211q-27 109 -27 202zM371 1382q0 256 229 256v-102q-98 0 -98 -117v-43h106v-196h-211q-27 109 -26 202z" />
<glyph unicode="&#x201d;" horiz-adv-x="667" d="M61 1440v196h211q27 -109 27 -202q0 -256 -229 -256v102q98 0 98 117v43h-107zM371 1440v196h211q27 -109 26 -202q0 -256 -229 -256v102q98 0 98 117v43h-106z" />
<glyph unicode="&#x201e;" horiz-adv-x="413" d="M74 -66v226h221q80 -303 -29 -414q-59 -63 -174 -63v102q51 0 74.5 24.5t23.5 81.5v43h-116z" />
<glyph unicode="&#x2022;" horiz-adv-x="946" d="M205 682q0 113 77.5 190.5t190.5 77.5t190.5 -77.5t77.5 -190.5t-77.5 -189.5t-190.5 -76.5t-190.5 76.5t-77.5 189.5z" />
<glyph unicode="&#x2026;" horiz-adv-x="1306" d="M100 140.5q0 58.5 40 99.5t99.5 41t100.5 -41t41 -100.5t-41 -99.5t-100.5 -40t-99.5 41t-40 99.5zM512 140.5q0 58.5 40 99.5t99.5 41t100.5 -41t41 -100.5t-41 -99.5t-99.5 -40t-99.5 41t-41 99.5zM926 140.5q0 58.5 40 99.5t99 41t100 -41t41 -100.5t-41 -99.5 t-99 -40t-99 41t-41 99.5z" />
<glyph unicode="&#x202f;" horiz-adv-x="405" />
<glyph unicode="&#x2039;" horiz-adv-x="608" d="M92 604l189 359h225l-197 -359l197 -358h-225z" />
<glyph unicode="&#x203a;" horiz-adv-x="608" d="M102 246l195 358l-195 359h224l190 -359l-190 -358h-224z" />
<glyph unicode="&#x205f;" horiz-adv-x="506" />
<glyph unicode="&#x20ac;" horiz-adv-x="1642" d="M53 465v160h152q-4 57 -4 90t4 90h-152v160h189q74 217 260 347t418.5 130t409.5 -111.5t257 -316.5h-280q-115 215 -379 215q-147 0 -262 -69.5t-174 -194.5h436v-160h-482q-6 -43 -6 -90t6 -90h482v-160h-436q59 -127 172.5 -196.5t263.5 -69.5q264 0 379 215h280 q-80 -205 -256 -315.5t-409.5 -110.5t-420 130t-259.5 347h-189z" />
<glyph unicode="&#x2122;" horiz-adv-x="1660" d="M49 1303v139h502v-139h-162l2 -582h-184l4 582h-162zM670 721v721h237l197 -506l207 506h225v-721h-168l-4 487l-203 -487h-125l-200 498v-498h-166z" />
<glyph unicode="&#x25fc;" horiz-adv-x="1126" d="M0 0v1126h1126v-1126h-1126z" />
</font>
</defs></svg> 